^D:\OSIPOV\BITBUCKET\GAP-255-01-PROGRAMMING-DESIGN-PATTERNS\HOMEWORK\ASSIGNMENT_4_1\ASSIGNMENT_2_1_TO_4_1\ASSIGNMENT_2_1\DEBUG\AIPLAYER.OBJ|D:\OSIPOV\BITBUCKET\GAP-255-01-PROGRAMMING-DESIGN-PATTERNS\HOMEWORK\ASSIGNMENT_4_1\ASSIGNMENT_2_1_TO_4_1\ASSIGNMENT_2_1\DEBUG\ASSIGNMENT_2_1.OBJ|D:\OSIPOV\BITBUCKET\GAP-255-01-PROGRAMMING-DESIGN-PATTERNS\HOMEWORK\ASSIGNMENT_4_1\ASSIGNMENT_2_1_TO_4_1\ASSIGNMENT_2_1\DEBUG\GAMEFIELD.OBJ|D:\OSIPOV\BITBUCKET\GAP-255-01-PROGRAMMING-DESIGN-PATTERNS\HOMEWORK\ASSIGNMENT_4_1\ASSIGNMENT_2_1_TO_4_1\ASSIGNMENT_2_1\DEBUG\HUMANPLAYER.OBJ|D:\OSIPOV\BITBUCKET\GAP-255-01-PROGRAMMING-DESIGN-PATTERNS\HOMEWORK\ASSIGNMENT_4_1\ASSIGNMENT_2_1_TO_4_1\ASSIGNMENT_2_1\DEBUG\MAPTILE.OBJ|D:\OSIPOV\BITBUCKET\GAP-255-01-PROGRAMMING-DESIGN-PATTERNS\HOMEWORK\ASSIGNMENT_4_1\ASSIGNMENT_2_1_TO_4_1\ASSIGNMENT_2_1\DEBUG\PLAYER.OBJ|D:\OSIPOV\BITBUCKET\GAP-255-01-PROGRAMMING-DESIGN-PATTERNS\HOMEWORK\ASSIGNMENT_4_1\ASSIGNMENT_2_1_TO_4_1\ASSIGNMENT_2_1\DEBUG\UTILITY.OBJ|D:\OSIPOV\BITBUCKET\GAP-255-01-PROGRAMMING-DESIGN-PATTERNS\HOMEWORK\ASSIGNMENT_4_1\ASSIGNMENT_2_1_TO_4_1\ASSIGNMENT_2_1\DEBUG\WORLD.OBJ
/OUT:"D:\OSIPOV\BITBUCKET\GAP-255-01-PROGRAMMING-DESIGN-PATTERNS\HOMEWORK\ASSIGNMENT_4_1\ASSIGNMENT_2_1_TO_4_1\DEBUG\ASSIGNMENT_2_1.EXE" /INCREMENTAL /NOLOGO kernel32.lib user32.lib gdi32.lib winspool.lib comdlg32.lib advapi32.lib shell32.lib ole32.lib oleaut32.lib uuid.lib odbc32.lib odbccp32.lib /MANIFEST /MANIFESTUAC:"level='asInvoker' uiAccess='false'" /manifest:embed /DEBUG /PDB:"D:\OSIPOV\BITBUCKET\GAP-255-01-PROGRAMMING-DESIGN-PATTERNS\HOMEWORK\ASSIGNMENT_4_1\ASSIGNMENT_2_1_TO_4_1\DEBUG\ASSIGNMENT_2_1.PDB" /SUBSYSTEM:CONSOLE /TLBID:1 /DYNAMICBASE /NXCOMPAT /IMPLIB:"D:\OSIPOV\BITBUCKET\GAP-255-01-PROGRAMMING-DESIGN-PATTERNS\HOMEWORK\ASSIGNMENT_4_1\ASSIGNMENT_2_1_TO_4_1\DEBUG\ASSIGNMENT_2_1.LIB" /MACHINE:X86 DEBUG\AIPLAYER.OBJDEBUG\ASSIGNMENT_2_1.OBJDEBUG\GAMEFIELD.OBJDEBUG\HUMANPLAYER.OBJDEBUG\MAPTILE.OBJDEBUG\PLAYER.OBJDEBUG\UTILITY.OBJDEBUG\WORLD.OBJ
^D:\OSIPOV\GAP-255-01-PROGRAMMING-DESIGN-PATTERNS\HOMEWORK\ASSIGNMENT_4_1\ASSIGNMENT_2_1_TO_4_1\ASSIGNMENT_2_1\DEBUG\AIPLAYER.OBJ|D:\OSIPOV\GAP-255-01-PROGRAMMING-DESIGN-PATTERNS\HOMEWORK\ASSIGNMENT_4_1\ASSIGNMENT_2_1_TO_4_1\ASSIGNMENT_2_1\DEBUG\ASSIGNMENT_2_1.OBJ|D:\OSIPOV\GAP-255-01-PROGRAMMING-DESIGN-PATTERNS\HOMEWORK\ASSIGNMENT_4_1\ASSIGNMENT_2_1_TO_4_1\ASSIGNMENT_2_1\DEBUG\GAMEFIELD.OBJ|D:\OSIPOV\GAP-255-01-PROGRAMMING-DESIGN-PATTERNS\HOMEWORK\ASSIGNMENT_4_1\ASSIGNMENT_2_1_TO_4_1\ASSIGNMENT_2_1\DEBUG\HUMANPLAYER.OBJ|D:\OSIPOV\GAP-255-01-PROGRAMMING-DESIGN-PATTERNS\HOMEWORK\ASSIGNMENT_4_1\ASSIGNMENT_2_1_TO_4_1\ASSIGNMENT_2_1\DEBUG\MAPTILE.OBJ|D:\OSIPOV\GAP-255-01-PROGRAMMING-DESIGN-PATTERNS\HOMEWORK\ASSIGNMENT_4_1\ASSIGNMENT_2_1_TO_4_1\ASSIGNMENT_2_1\DEBUG\PLAYER.OBJ|D:\OSIPOV\GAP-255-01-PROGRAMMING-DESIGN-PATTERNS\HOMEWORK\ASSIGNMENT_4_1\ASSIGNMENT_2_1_TO_4_1\ASSIGNMENT_2_1\DEBUG\UTILITY.OBJ|D:\OSIPOV\GAP-255-01-PROGRAMMING-DESIGN-PATTERNS\HOMEWORK\ASSIGNMENT_4_1\ASSIGNMENT_2_1_TO_4_1\ASSIGNMENT_2_1\DEBUG\WORLD.OBJ
/OUT:"D:\OSIPOV\GAP-255-01-PROGRAMMING-DESIGN-PATTERNS\HOMEWORK\ASSIGNMENT_4_1\ASSIGNMENT_2_1_TO_4_1\DEBUG\ASSIGNMENT_2_1.EXE" /INCREMENTAL /NOLOGO kernel32.lib user32.lib gdi32.lib winspool.lib comdlg32.lib advapi32.lib shell32.lib ole32.lib oleaut32.lib uuid.lib odbc32.lib odbccp32.lib /MANIFEST /MANIFESTUAC:"level='asInvoker' uiAccess='false'" /manifest:embed /DEBUG /PDB:"D:\OSIPOV\GAP-255-01-PROGRAMMING-DESIGN-PATTERNS\HOMEWORK\ASSIGNMENT_4_1\ASSIGNMENT_2_1_TO_4_1\DEBUG\ASSIGNMENT_2_1.PDB" /SUBSYSTEM:CONSOLE /TLBID:1 /DYNAMICBASE /NXCOMPAT /IMPLIB:"D:\OSIPOV\GAP-255-01-PROGRAMMING-DESIGN-PATTERNS\HOMEWORK\ASSIGNMENT_4_1\ASSIGNMENT_2_1_TO_4_1\DEBUG\ASSIGNMENT_2_1.LIB" /MACHINE:X86 DEBUG\AIPLAYER.OBJDEBUG\ASSIGNMENT_2_1.OBJDEBUG\GAMEFIELD.OBJDEBUG\HUMANPLAYER.OBJDEBUG\MAPTILE.OBJDEBUG\PLAYER.OBJDEBUG\UTILITY.OBJDEBUG\WORLD.OBJ
