^E:\REZ\GAP 255\RECIPEDEMO\RECIPEDEMO\FRIEDRICERECIPE.CPP|E:\REZ\GAP 255\RECIPEDEMO\RECIPEDEMO\MAIN.CPP|E:\REZ\GAP 255\RECIPEDEMO\RECIPEDEMO\RECIPE.CPP
E:\REZ\GAP 255\RECIPEDEMO\RECIPEDEMO\DEBUG\VC120.PDB
E:\REZ\GAP 255\RECIPEDEMO\RECIPEDEMO\DEBUG\VC120.IDB
E:\REZ\GAP 255\RECIPEDEMO\RECIPEDEMO\DEBUG\FRIEDRICERECIPE.OBJ
E:\REZ\GAP 255\RECIPEDEMO\RECIPEDEMO\DEBUG\MAIN.OBJ
E:\REZ\GAP 255\RECIPEDEMO\RECIPEDEMO\DEBUG\RECIPE.OBJ
^E:\REZ\GAP 255\RECIPEDEMO\RECIPEDEMO\FRIEDRICERECIPE.CPP
E:\REZ\GAP 255\RECIPEDEMO\RECIPEDEMO\DEBUG\VC120.PDB
^E:\REZ\GAP 255\RECIPEDEMO\RECIPEDEMO\MAIN.CPP
E:\REZ\GAP 255\RECIPEDEMO\RECIPEDEMO\DEBUG\VC120.PDB
E:\REZ\GAP 255\RECIPEDEMO\RECIPEDEMO\DEBUG\VC120.IDB
E:\REZ\GAP 255\RECIPEDEMO\RECIPEDEMO\DEBUG\MAIN.OBJ
^E:\REZ\GAP 255\RECIPEDEMO\RECIPEDEMO\RECIPE.CPP
E:\REZ\GAP 255\RECIPEDEMO\RECIPEDEMO\DEBUG\VC120.PDB
^E:\REZ\GAP 255\RECIPEDEMO\RECIPEDEMO\MAIN.CPP|E:\REZ\GAP 255\RECIPEDEMO\RECIPEDEMO\RECIPE.CPP
E:\REZ\GAP 255\RECIPEDEMO\RECIPEDEMO\DEBUG\VC120.PDB
E:\REZ\GAP 255\RECIPEDEMO\RECIPEDEMO\DEBUG\VC120.IDB
E:\REZ\GAP 255\RECIPEDEMO\RECIPEDEMO\DEBUG\MAIN.OBJ
E:\REZ\GAP 255\RECIPEDEMO\RECIPEDEMO\DEBUG\RECIPE.OBJ
