^D:\WORK\SCHOOL\BITBUCKET\GAP-255-01-PROGRAMMING-DESIGN-PATTERNS\HOMEWORK\ASSIGNMENT_4_1\ASSIGNMENT_4_1\ASSIGNMENT_4_1\AI_PLAYER_BEHAVIOR.CPP
/c /ZI /nologo /W3 /WX- /sdl /Od /Oy- /D WIN32 /D _DEBUG /D _CONSOLE /D _LIB /D _UNICODE /D UNICODE /Gm /EHsc /RTC1 /MDd /GS /fp:precise /Zc:wchar_t /Zc:forScope /Fo"DEBUG\\" /Fd"DEBUG\VC120.PDB" /Gd /TP /analyze- D:\WORK\SCHOOL\BITBUCKET\GAP-255-01-PROGRAMMING-DESIGN-PATTERNS\HOMEWORK\ASSIGNMENT_4_1\ASSIGNMENT_4_1\ASSIGNMENT_4_1\AI_PLAYER_BEHAVIOR.CPP
^D:\WORK\SCHOOL\BITBUCKET\GAP-255-01-PROGRAMMING-DESIGN-PATTERNS\HOMEWORK\ASSIGNMENT_4_1\ASSIGNMENT_4_1\ASSIGNMENT_4_1\ASSIGNMENT_4_1.CPP
/c /ZI /nologo /W3 /WX- /sdl /Od /Oy- /D WIN32 /D _DEBUG /D _CONSOLE /D _LIB /D _UNICODE /D UNICODE /Gm /EHsc /RTC1 /MDd /GS /fp:precise /Zc:wchar_t /Zc:forScope /Fo"DEBUG\\" /Fd"DEBUG\VC120.PDB" /Gd /TP /analyze- D:\WORK\SCHOOL\BITBUCKET\GAP-255-01-PROGRAMMING-DESIGN-PATTERNS\HOMEWORK\ASSIGNMENT_4_1\ASSIGNMENT_4_1\ASSIGNMENT_4_1\ASSIGNMENT_4_1.CPP
^D:\WORK\SCHOOL\BITBUCKET\GAP-255-01-PROGRAMMING-DESIGN-PATTERNS\HOMEWORK\ASSIGNMENT_4_1\ASSIGNMENT_4_1\ASSIGNMENT_4_1\GAME_BOARD.CPP
/c /ZI /nologo /W3 /WX- /sdl /Od /Oy- /D WIN32 /D _DEBUG /D _CONSOLE /D _LIB /D _UNICODE /D UNICODE /Gm /EHsc /RTC1 /MDd /GS /fp:precise /Zc:wchar_t /Zc:forScope /Fo"DEBUG\\" /Fd"DEBUG\VC120.PDB" /Gd /TP /analyze- D:\WORK\SCHOOL\BITBUCKET\GAP-255-01-PROGRAMMING-DESIGN-PATTERNS\HOMEWORK\ASSIGNMENT_4_1\ASSIGNMENT_4_1\ASSIGNMENT_4_1\GAME_BOARD.CPP
^D:\WORK\SCHOOL\BITBUCKET\GAP-255-01-PROGRAMMING-DESIGN-PATTERNS\HOMEWORK\ASSIGNMENT_4_1\ASSIGNMENT_4_1\ASSIGNMENT_4_1\HUMAN_PLAYER_BEHAVIOR.CPP
/c /ZI /nologo /W3 /WX- /sdl /Od /Oy- /D WIN32 /D _DEBUG /D _CONSOLE /D _LIB /D _UNICODE /D UNICODE /Gm /EHsc /RTC1 /MDd /GS /fp:precise /Zc:wchar_t /Zc:forScope /Fo"DEBUG\\" /Fd"DEBUG\VC120.PDB" /Gd /TP /analyze- D:\WORK\SCHOOL\BITBUCKET\GAP-255-01-PROGRAMMING-DESIGN-PATTERNS\HOMEWORK\ASSIGNMENT_4_1\ASSIGNMENT_4_1\ASSIGNMENT_4_1\HUMAN_PLAYER_BEHAVIOR.CPP
^D:\WORK\SCHOOL\BITBUCKET\GAP-255-01-PROGRAMMING-DESIGN-PATTERNS\HOMEWORK\ASSIGNMENT_4_1\ASSIGNMENT_4_1\ASSIGNMENT_4_1\PLAYER.CPP
/c /ZI /nologo /W3 /WX- /sdl /Od /Oy- /D WIN32 /D _DEBUG /D _CONSOLE /D _LIB /D _UNICODE /D UNICODE /Gm /EHsc /RTC1 /MDd /GS /fp:precise /Zc:wchar_t /Zc:forScope /Fo"DEBUG\\" /Fd"DEBUG\VC120.PDB" /Gd /TP /analyze- D:\WORK\SCHOOL\BITBUCKET\GAP-255-01-PROGRAMMING-DESIGN-PATTERNS\HOMEWORK\ASSIGNMENT_4_1\ASSIGNMENT_4_1\ASSIGNMENT_4_1\PLAYER.CPP
^D:\WORK\SCHOOL\BITBUCKET\GAP-255-01-PROGRAMMING-DESIGN-PATTERNS\HOMEWORK\ASSIGNMENT_4_1\ASSIGNMENT_4_1\ASSIGNMENT_4_1\PLAYER_BEHAVIOR.CPP
/c /ZI /nologo /W3 /WX- /sdl /Od /Oy- /D WIN32 /D _DEBUG /D _CONSOLE /D _LIB /D _UNICODE /D UNICODE /Gm /EHsc /RTC1 /MDd /GS /fp:precise /Zc:wchar_t /Zc:forScope /Fo"DEBUG\\" /Fd"DEBUG\VC120.PDB" /Gd /TP /analyze- D:\WORK\SCHOOL\BITBUCKET\GAP-255-01-PROGRAMMING-DESIGN-PATTERNS\HOMEWORK\ASSIGNMENT_4_1\ASSIGNMENT_4_1\ASSIGNMENT_4_1\PLAYER_BEHAVIOR.CPP
^D:\WORK\SCHOOL\BITBUCKET\GAP-255-01-PROGRAMMING-DESIGN-PATTERNS\HOMEWORK\ASSIGNMENT_4_1\ASSIGNMENT_4_1\ASSIGNMENT_4_1\TILE.CPP
/c /ZI /nologo /W3 /WX- /sdl /Od /Oy- /D WIN32 /D _DEBUG /D _CONSOLE /D _LIB /D _UNICODE /D UNICODE /Gm /EHsc /RTC1 /MDd /GS /fp:precise /Zc:wchar_t /Zc:forScope /Fo"DEBUG\\" /Fd"DEBUG\VC120.PDB" /Gd /TP /analyze- D:\WORK\SCHOOL\BITBUCKET\GAP-255-01-PROGRAMMING-DESIGN-PATTERNS\HOMEWORK\ASSIGNMENT_4_1\ASSIGNMENT_4_1\ASSIGNMENT_4_1\TILE.CPP
^D:\WORK\SCHOOL\BITBUCKET\GAP-255-01-PROGRAMMING-DESIGN-PATTERNS\HOMEWORK\ASSIGNMENT_4_1\ASSIGNMENT_4_1\ASSIGNMENT_4_1\TILE_BEHAVIOR.CPP
/c /ZI /nologo /W3 /WX- /sdl /Od /Oy- /D WIN32 /D _DEBUG /D _CONSOLE /D _LIB /D _UNICODE /D UNICODE /Gm /EHsc /RTC1 /MDd /GS /fp:precise /Zc:wchar_t /Zc:forScope /Fo"DEBUG\\" /Fd"DEBUG\VC120.PDB" /Gd /TP /analyze- D:\WORK\SCHOOL\BITBUCKET\GAP-255-01-PROGRAMMING-DESIGN-PATTERNS\HOMEWORK\ASSIGNMENT_4_1\ASSIGNMENT_4_1\ASSIGNMENT_4_1\TILE_BEHAVIOR.CPP
^D:\WORK\SCHOOL\BITBUCKET\GAP-255-01-PROGRAMMING-DESIGN-PATTERNS\HOMEWORK\ASSIGNMENT_4_1\ASSIGNMENT_4_1\ASSIGNMENT_4_1\WORLD.CPP
/c /ZI /nologo /W3 /WX- /sdl /Od /Oy- /D WIN32 /D _DEBUG /D _CONSOLE /D _LIB /D _UNICODE /D UNICODE /Gm /EHsc /RTC1 /MDd /GS /fp:precise /Zc:wchar_t /Zc:forScope /Fo"DEBUG\\" /Fd"DEBUG\VC120.PDB" /Gd /TP /analyze- D:\WORK\SCHOOL\BITBUCKET\GAP-255-01-PROGRAMMING-DESIGN-PATTERNS\HOMEWORK\ASSIGNMENT_4_1\ASSIGNMENT_4_1\ASSIGNMENT_4_1\WORLD.CPP
^D:\OSIPOV\GAP-255-01-PROGRAMMING-DESIGN-PATTERNS\HOMEWORK\ASSIGNMENT_4_1\ASSIGNMENT_4_1\ASSIGNMENT_4_1\AI_PLAYER_BEHAVIOR.CPP
/c /ZI /nologo /W3 /WX- /sdl /Od /Oy- /D WIN32 /D _DEBUG /D _CONSOLE /D _LIB /D _UNICODE /D UNICODE /Gm /EHsc /RTC1 /MDd /GS /fp:precise /Zc:wchar_t /Zc:forScope /Fo"DEBUG\\" /Fd"DEBUG\VC120.PDB" /Gd /TP /analyze- D:\OSIPOV\GAP-255-01-PROGRAMMING-DESIGN-PATTERNS\HOMEWORK\ASSIGNMENT_4_1\ASSIGNMENT_4_1\ASSIGNMENT_4_1\AI_PLAYER_BEHAVIOR.CPP
^D:\OSIPOV\GAP-255-01-PROGRAMMING-DESIGN-PATTERNS\HOMEWORK\ASSIGNMENT_4_1\ASSIGNMENT_4_1\ASSIGNMENT_4_1\ASSIGNMENT_4_1.CPP
/c /ZI /nologo /W3 /WX- /sdl /Od /Oy- /D WIN32 /D _DEBUG /D _CONSOLE /D _LIB /D _UNICODE /D UNICODE /Gm /EHsc /RTC1 /MDd /GS /fp:precise /Zc:wchar_t /Zc:forScope /Fo"DEBUG\\" /Fd"DEBUG\VC120.PDB" /Gd /TP /analyze- D:\OSIPOV\GAP-255-01-PROGRAMMING-DESIGN-PATTERNS\HOMEWORK\ASSIGNMENT_4_1\ASSIGNMENT_4_1\ASSIGNMENT_4_1\ASSIGNMENT_4_1.CPP
^D:\OSIPOV\GAP-255-01-PROGRAMMING-DESIGN-PATTERNS\HOMEWORK\ASSIGNMENT_4_1\ASSIGNMENT_4_1\ASSIGNMENT_4_1\GAME_BOARD.CPP
/c /ZI /nologo /W3 /WX- /sdl /Od /Oy- /D WIN32 /D _DEBUG /D _CONSOLE /D _LIB /D _UNICODE /D UNICODE /Gm /EHsc /RTC1 /MDd /GS /fp:precise /Zc:wchar_t /Zc:forScope /Fo"DEBUG\\" /Fd"DEBUG\VC120.PDB" /Gd /TP /analyze- D:\OSIPOV\GAP-255-01-PROGRAMMING-DESIGN-PATTERNS\HOMEWORK\ASSIGNMENT_4_1\ASSIGNMENT_4_1\ASSIGNMENT_4_1\GAME_BOARD.CPP
^D:\OSIPOV\GAP-255-01-PROGRAMMING-DESIGN-PATTERNS\HOMEWORK\ASSIGNMENT_4_1\ASSIGNMENT_4_1\ASSIGNMENT_4_1\HUMAN_PLAYER_BEHAVIOR.CPP
/c /ZI /nologo /W3 /WX- /sdl /Od /Oy- /D WIN32 /D _DEBUG /D _CONSOLE /D _LIB /D _UNICODE /D UNICODE /Gm /EHsc /RTC1 /MDd /GS /fp:precise /Zc:wchar_t /Zc:forScope /Fo"DEBUG\\" /Fd"DEBUG\VC120.PDB" /Gd /TP /analyze- D:\OSIPOV\GAP-255-01-PROGRAMMING-DESIGN-PATTERNS\HOMEWORK\ASSIGNMENT_4_1\ASSIGNMENT_4_1\ASSIGNMENT_4_1\HUMAN_PLAYER_BEHAVIOR.CPP
^D:\OSIPOV\GAP-255-01-PROGRAMMING-DESIGN-PATTERNS\HOMEWORK\ASSIGNMENT_4_1\ASSIGNMENT_4_1\ASSIGNMENT_4_1\PLAYER.CPP
/c /ZI /nologo /W3 /WX- /sdl /Od /Oy- /D WIN32 /D _DEBUG /D _CONSOLE /D _LIB /D _UNICODE /D UNICODE /Gm /EHsc /RTC1 /MDd /GS /fp:precise /Zc:wchar_t /Zc:forScope /Fo"DEBUG\\" /Fd"DEBUG\VC120.PDB" /Gd /TP /analyze- D:\OSIPOV\GAP-255-01-PROGRAMMING-DESIGN-PATTERNS\HOMEWORK\ASSIGNMENT_4_1\ASSIGNMENT_4_1\ASSIGNMENT_4_1\PLAYER.CPP
^D:\OSIPOV\GAP-255-01-PROGRAMMING-DESIGN-PATTERNS\HOMEWORK\ASSIGNMENT_4_1\ASSIGNMENT_4_1\ASSIGNMENT_4_1\PLAYER_BEHAVIOR.CPP
/c /ZI /nologo /W3 /WX- /sdl /Od /Oy- /D WIN32 /D _DEBUG /D _CONSOLE /D _LIB /D _UNICODE /D UNICODE /Gm /EHsc /RTC1 /MDd /GS /fp:precise /Zc:wchar_t /Zc:forScope /Fo"DEBUG\\" /Fd"DEBUG\VC120.PDB" /Gd /TP /analyze- D:\OSIPOV\GAP-255-01-PROGRAMMING-DESIGN-PATTERNS\HOMEWORK\ASSIGNMENT_4_1\ASSIGNMENT_4_1\ASSIGNMENT_4_1\PLAYER_BEHAVIOR.CPP
^D:\OSIPOV\GAP-255-01-PROGRAMMING-DESIGN-PATTERNS\HOMEWORK\ASSIGNMENT_4_1\ASSIGNMENT_4_1\ASSIGNMENT_4_1\TILE.CPP
/c /ZI /nologo /W3 /WX- /sdl /Od /Oy- /D WIN32 /D _DEBUG /D _CONSOLE /D _LIB /D _UNICODE /D UNICODE /Gm /EHsc /RTC1 /MDd /GS /fp:precise /Zc:wchar_t /Zc:forScope /Fo"DEBUG\\" /Fd"DEBUG\VC120.PDB" /Gd /TP /analyze- D:\OSIPOV\GAP-255-01-PROGRAMMING-DESIGN-PATTERNS\HOMEWORK\ASSIGNMENT_4_1\ASSIGNMENT_4_1\ASSIGNMENT_4_1\TILE.CPP
^D:\OSIPOV\GAP-255-01-PROGRAMMING-DESIGN-PATTERNS\HOMEWORK\ASSIGNMENT_4_1\ASSIGNMENT_4_1\ASSIGNMENT_4_1\WORLD.CPP
/c /ZI /nologo /W3 /WX- /sdl /Od /Oy- /D WIN32 /D _DEBUG /D _CONSOLE /D _LIB /D _UNICODE /D UNICODE /Gm /EHsc /RTC1 /MDd /GS /fp:precise /Zc:wchar_t /Zc:forScope /Fo"DEBUG\\" /Fd"DEBUG\VC120.PDB" /Gd /TP /analyze- D:\OSIPOV\GAP-255-01-PROGRAMMING-DESIGN-PATTERNS\HOMEWORK\ASSIGNMENT_4_1\ASSIGNMENT_4_1\ASSIGNMENT_4_1\WORLD.CPP
