^D:\WORK\SCHOOL\BITBUCKET\GAP-255-01-PROGRAMMING-DESIGN-PATTERNS\HOMEWORK\FINAL\OSIPOV_VADIM_FINAL\OSIPOV_VADIM_FINAL\DEBUG\ENEMY.OBJ|D:\WORK\SCHOOL\BITBUCKET\GAP-255-01-PROGRAMMING-DESIGN-PATTERNS\HOMEWORK\FINAL\OSIPOV_VADIM_FINAL\OSIPOV_VADIM_FINAL\DEBUG\GAME.OBJ|D:\WORK\SCHOOL\BITBUCKET\GAP-255-01-PROGRAMMING-DESIGN-PATTERNS\HOMEWORK\FINAL\OSIPOV_VADIM_FINAL\OSIPOV_VADIM_FINAL\DEBUG\GAMEOBJECT.OBJ|D:\WORK\SCHOOL\BITBUCKET\GAP-255-01-PROGRAMMING-DESIGN-PATTERNS\HOMEWORK\FINAL\OSIPOV_VADIM_FINAL\OSIPOV_VADIM_FINAL\DEBUG\MAIN.OBJ|D:\WORK\SCHOOL\BITBUCKET\GAP-255-01-PROGRAMMING-DESIGN-PATTERNS\HOMEWORK\FINAL\OSIPOV_VADIM_FINAL\OSIPOV_VADIM_FINAL\DEBUG\OBJECTFACTORY.OBJ|D:\WORK\SCHOOL\BITBUCKET\GAP-255-01-PROGRAMMING-DESIGN-PATTERNS\HOMEWORK\FINAL\OSIPOV_VADIM_FINAL\OSIPOV_VADIM_FINAL\DEBUG\PLAYER.OBJ|D:\WORK\SCHOOL\BITBUCKET\GAP-255-01-PROGRAMMING-DESIGN-PATTERNS\HOMEWORK\FINAL\OSIPOV_VADIM_FINAL\OSIPOV_VADIM_FINAL\DEBUG\PROJECTILE.OBJ|D:\WORK\SCHOOL\BITBUCKET\GAP-255-01-PROGRAMMING-DESIGN-PATTERNS\HOMEWORK\FINAL\OSIPOV_VADIM_FINAL\OSIPOV_VADIM_FINAL\DEBUG\RENDERER.OBJ|D:\WORK\SCHOOL\BITBUCKET\GAP-255-01-PROGRAMMING-DESIGN-PATTERNS\HOMEWORK\FINAL\OSIPOV_VADIM_FINAL\OSIPOV_VADIM_FINAL\DEBUG\RENDERERCOMPONENT.OBJ|D:\WORK\SCHOOL\BITBUCKET\GAP-255-01-PROGRAMMING-DESIGN-PATTERNS\HOMEWORK\FINAL\OSIPOV_VADIM_FINAL\OSIPOV_VADIM_FINAL\DEBUG\WEAPON.OBJ
D:\WORK\SCHOOL\BITBUCKET\GAP-255-01-PROGRAMMING-DESIGN-PATTERNS\HOMEWORK\FINAL\OSIPOV_VADIM_FINAL\DEBUG\OSIPOV_VADIM_FINAL.ILK
D:\WORK\SCHOOL\BITBUCKET\GAP-255-01-PROGRAMMING-DESIGN-PATTERNS\HOMEWORK\FINAL\OSIPOV_VADIM_FINAL\DEBUG\OSIPOV_VADIM_FINAL.EXE
D:\WORK\SCHOOL\BITBUCKET\GAP-255-01-PROGRAMMING-DESIGN-PATTERNS\HOMEWORK\FINAL\OSIPOV_VADIM_FINAL\DEBUG\OSIPOV_VADIM_FINAL.PDB
