^D:\OSIPOV\PATTERNS\INCLASS\MOD_2\RECIPEDEMO\RECIPEDEMO\DUMPLINGRECIPE.CPP|D:\OSIPOV\PATTERNS\INCLASS\MOD_2\RECIPEDEMO\RECIPEDEMO\FRIEDRICERECIPE.CPP|D:\OSIPOV\PATTERNS\INCLASS\MOD_2\RECIPEDEMO\RECIPEDEMO\MAIN.CPP|D:\OSIPOV\PATTERNS\INCLASS\MOD_2\RECIPEDEMO\RECIPEDEMO\RECIPE.CPP
D:\OSIPOV\PATTERNS\INCLASS\MOD_2\RECIPEDEMO\RECIPEDEMO\DEBUG\VC120.PDB
D:\OSIPOV\PATTERNS\INCLASS\MOD_2\RECIPEDEMO\RECIPEDEMO\DEBUG\VC120.IDB
D:\OSIPOV\PATTERNS\INCLASS\MOD_2\RECIPEDEMO\RECIPEDEMO\DEBUG\FRIEDRICERECIPE.OBJ
D:\OSIPOV\PATTERNS\INCLASS\MOD_2\RECIPEDEMO\RECIPEDEMO\DEBUG\MAIN.OBJ
D:\OSIPOV\PATTERNS\INCLASS\MOD_2\RECIPEDEMO\RECIPEDEMO\DEBUG\RECIPE.OBJ
^D:\OSIPOV\PATTERNS\INCLASS\MOD_2\RECIPEDEMO\RECIPEDEMO\DUMPLINGRECIPE.CPP
D:\OSIPOV\PATTERNS\INCLASS\MOD_2\RECIPEDEMO\RECIPEDEMO\DEBUG\VC120.PDB
D:\OSIPOV\PATTERNS\INCLASS\MOD_2\RECIPEDEMO\RECIPEDEMO\DEBUG\VC120.IDB
^D:\OSIPOV\PATTERNS\INCLASS\MOD_2\RECIPEDEMO\RECIPEDEMO\FRIEDRICERECIPE.CPP
D:\OSIPOV\PATTERNS\INCLASS\MOD_2\RECIPEDEMO\RECIPEDEMO\DEBUG\VC120.PDB
^D:\OSIPOV\PATTERNS\INCLASS\MOD_2\RECIPEDEMO\RECIPEDEMO\MAIN.CPP
D:\OSIPOV\PATTERNS\INCLASS\MOD_2\RECIPEDEMO\RECIPEDEMO\DEBUG\VC120.PDB
^D:\OSIPOV\PATTERNS\INCLASS\MOD_2\RECIPEDEMO\RECIPEDEMO\RECIPE.CPP
D:\OSIPOV\PATTERNS\INCLASS\MOD_2\RECIPEDEMO\RECIPEDEMO\DEBUG\VC120.PDB
^D:\OSIPOV\PATTERNS\INCLASS\MOD_2\RECIPEDEMO\RECIPEDEMO\DUMPLINGRECIPE.CPP|D:\OSIPOV\PATTERNS\INCLASS\MOD_2\RECIPEDEMO\RECIPEDEMO\MAIN.CPP
D:\OSIPOV\PATTERNS\INCLASS\MOD_2\RECIPEDEMO\RECIPEDEMO\DEBUG\VC120.PDB
D:\OSIPOV\PATTERNS\INCLASS\MOD_2\RECIPEDEMO\RECIPEDEMO\DEBUG\VC120.IDB
D:\OSIPOV\PATTERNS\INCLASS\MOD_2\RECIPEDEMO\RECIPEDEMO\DEBUG\DUMPLINGRECIPE.OBJ
D:\OSIPOV\PATTERNS\INCLASS\MOD_2\RECIPEDEMO\RECIPEDEMO\DEBUG\MAIN.OBJ
