^D:\OSIPOV\PROGRAMMINGPATTERNS\GAP-255-01-PROGRAMMING-DESIGN-PATTERNS\HOMEWORK\ASSIGNMENT_5_1\ASSIGNMENT_3_1_TO_5_1\ASSIGNMENT_3_1\DEBUG\ACTOR.OBJ|D:\OSIPOV\PROGRAMMINGPATTERNS\GAP-255-01-PROGRAMMING-DESIGN-PATTERNS\HOMEWORK\ASSIGNMENT_5_1\ASSIGNMENT_3_1_TO_5_1\ASSIGNMENT_3_1\DEBUG\ASSIGNMENT_3_1.OBJ|D:\OSIPOV\PROGRAMMINGPATTERNS\GAP-255-01-PROGRAMMING-DESIGN-PATTERNS\HOMEWORK\ASSIGNMENT_5_1\ASSIGNMENT_3_1_TO_5_1\ASSIGNMENT_3_1\DEBUG\BOMBTILE.OBJ|D:\OSIPOV\PROGRAMMINGPATTERNS\GAP-255-01-PROGRAMMING-DESIGN-PATTERNS\HOMEWORK\ASSIGNMENT_5_1\ASSIGNMENT_3_1_TO_5_1\ASSIGNMENT_3_1\DEBUG\ENDTILE.OBJ|D:\OSIPOV\PROGRAMMINGPATTERNS\GAP-255-01-PROGRAMMING-DESIGN-PATTERNS\HOMEWORK\ASSIGNMENT_5_1\ASSIGNMENT_3_1_TO_5_1\ASSIGNMENT_3_1\DEBUG\ENEMY.OBJ|D:\OSIPOV\PROGRAMMINGPATTERNS\GAP-255-01-PROGRAMMING-DESIGN-PATTERNS\HOMEWORK\ASSIGNMENT_5_1\ASSIGNMENT_3_1_TO_5_1\ASSIGNMENT_3_1\DEBUG\ENEMY_BEHAVIOR.OBJ|D:\OSIPOV\PROGRAMMINGPATTERNS\GAP-255-01-PROGRAMMING-DESIGN-PATTERNS\HOMEWORK\ASSIGNMENT_5_1\ASSIGNMENT_3_1_TO_5_1\ASSIGNMENT_3_1\DEBUG\FLOORTILE.OBJ|D:\OSIPOV\PROGRAMMINGPATTERNS\GAP-255-01-PROGRAMMING-DESIGN-PATTERNS\HOMEWORK\ASSIGNMENT_5_1\ASSIGNMENT_3_1_TO_5_1\ASSIGNMENT_3_1\DEBUG\MIMICTILE.OBJ|D:\OSIPOV\PROGRAMMINGPATTERNS\GAP-255-01-PROGRAMMING-DESIGN-PATTERNS\HOMEWORK\ASSIGNMENT_5_1\ASSIGNMENT_3_1_TO_5_1\ASSIGNMENT_3_1\DEBUG\PLAYER.OBJ|D:\OSIPOV\PROGRAMMINGPATTERNS\GAP-255-01-PROGRAMMING-DESIGN-PATTERNS\HOMEWORK\ASSIGNMENT_5_1\ASSIGNMENT_3_1_TO_5_1\ASSIGNMENT_3_1\DEBUG\TILE.OBJ|D:\OSIPOV\PROGRAMMINGPATTERNS\GAP-255-01-PROGRAMMING-DESIGN-PATTERNS\HOMEWORK\ASSIGNMENT_5_1\ASSIGNMENT_3_1_TO_5_1\ASSIGNMENT_3_1\DEBUG\TILE_EFFECT_ADD_GOLD.OBJ|D:\OSIPOV\PROGRAMMINGPATTERNS\GAP-255-01-PROGRAMMING-DESIGN-PATTERNS\HOMEWORK\ASSIGNMENT_5_1\ASSIGNMENT_3_1_TO_5_1\ASSIGNMENT_3_1\DEBUG\TILE_EFFECT_DAMAGE_PLAYER.OBJ|D:\OSIPOV\PROGRAMMINGPATTERNS\GAP-255-01-PROGRAMMING-DESIGN-PATTERNS\HOMEWORK\ASSIGNMENT_5_1\ASSIGNMENT_3_1_TO_5_1\ASSIGNMENT_3_1\DEBUG\TREASURETILE.OBJ|D:\OSIPOV\PROGRAMMINGPATTERNS\GAP-255-01-PROGRAMMING-DESIGN-PATTERNS\HOMEWORK\ASSIGNMENT_5_1\ASSIGNMENT_3_1_TO_5_1\ASSIGNMENT_3_1\DEBUG\UTILITY.OBJ|D:\OSIPOV\PROGRAMMINGPATTERNS\GAP-255-01-PROGRAMMING-DESIGN-PATTERNS\HOMEWORK\ASSIGNMENT_5_1\ASSIGNMENT_3_1_TO_5_1\ASSIGNMENT_3_1\DEBUG\WORLD.OBJ
C:\PROGRAM FILES (X86)\WINDOWS KITS\8.1\LIB\WINV6.3\UM\X86\KERNEL32.LIB
C:\PROGRAM FILES (X86)\WINDOWS KITS\8.1\LIB\WINV6.3\UM\X86\USER32.LIB
C:\PROGRAM FILES (X86)\WINDOWS KITS\8.1\LIB\WINV6.3\UM\X86\GDI32.LIB
C:\PROGRAM FILES (X86)\WINDOWS KITS\8.1\LIB\WINV6.3\UM\X86\WINSPOOL.LIB
C:\PROGRAM FILES (X86)\WINDOWS KITS\8.1\LIB\WINV6.3\UM\X86\COMDLG32.LIB
C:\PROGRAM FILES (X86)\WINDOWS KITS\8.1\LIB\WINV6.3\UM\X86\ADVAPI32.LIB
C:\PROGRAM FILES (X86)\WINDOWS KITS\8.1\LIB\WINV6.3\UM\X86\SHELL32.LIB
C:\PROGRAM FILES (X86)\WINDOWS KITS\8.1\LIB\WINV6.3\UM\X86\OLE32.LIB
C:\PROGRAM FILES (X86)\WINDOWS KITS\8.1\LIB\WINV6.3\UM\X86\OLEAUT32.LIB
C:\PROGRAM FILES (X86)\WINDOWS KITS\8.1\LIB\WINV6.3\UM\X86\UUID.LIB
C:\PROGRAM FILES (X86)\WINDOWS KITS\8.1\LIB\WINV6.3\UM\X86\ODBC32.LIB
C:\PROGRAM FILES (X86)\WINDOWS KITS\8.1\LIB\WINV6.3\UM\X86\ODBCCP32.LIB
D:\OSIPOV\PROGRAMMINGPATTERNS\GAP-255-01-PROGRAMMING-DESIGN-PATTERNS\HOMEWORK\ASSIGNMENT_5_1\ASSIGNMENT_3_1_TO_5_1\ASSIGNMENT_3_1\DEBUG\ACTOR.OBJ
D:\OSIPOV\PROGRAMMINGPATTERNS\GAP-255-01-PROGRAMMING-DESIGN-PATTERNS\HOMEWORK\ASSIGNMENT_5_1\ASSIGNMENT_3_1_TO_5_1\ASSIGNMENT_3_1\DEBUG\ASSIGNMENT_3_1.OBJ
D:\OSIPOV\PROGRAMMINGPATTERNS\GAP-255-01-PROGRAMMING-DESIGN-PATTERNS\HOMEWORK\ASSIGNMENT_5_1\ASSIGNMENT_3_1_TO_5_1\ASSIGNMENT_3_1\DEBUG\BOMBTILE.OBJ
D:\OSIPOV\PROGRAMMINGPATTERNS\GAP-255-01-PROGRAMMING-DESIGN-PATTERNS\HOMEWORK\ASSIGNMENT_5_1\ASSIGNMENT_3_1_TO_5_1\ASSIGNMENT_3_1\DEBUG\ENDTILE.OBJ
D:\OSIPOV\PROGRAMMINGPATTERNS\GAP-255-01-PROGRAMMING-DESIGN-PATTERNS\HOMEWORK\ASSIGNMENT_5_1\ASSIGNMENT_3_1_TO_5_1\ASSIGNMENT_3_1\DEBUG\ENEMY.OBJ
D:\OSIPOV\PROGRAMMINGPATTERNS\GAP-255-01-PROGRAMMING-DESIGN-PATTERNS\HOMEWORK\ASSIGNMENT_5_1\ASSIGNMENT_3_1_TO_5_1\ASSIGNMENT_3_1\DEBUG\ENEMY_BEHAVIOR.OBJ
D:\OSIPOV\PROGRAMMINGPATTERNS\GAP-255-01-PROGRAMMING-DESIGN-PATTERNS\HOMEWORK\ASSIGNMENT_5_1\ASSIGNMENT_3_1_TO_5_1\ASSIGNMENT_3_1\DEBUG\FLOORTILE.OBJ
D:\OSIPOV\PROGRAMMINGPATTERNS\GAP-255-01-PROGRAMMING-DESIGN-PATTERNS\HOMEWORK\ASSIGNMENT_5_1\ASSIGNMENT_3_1_TO_5_1\ASSIGNMENT_3_1\DEBUG\MIMICTILE.OBJ
D:\OSIPOV\PROGRAMMINGPATTERNS\GAP-255-01-PROGRAMMING-DESIGN-PATTERNS\HOMEWORK\ASSIGNMENT_5_1\ASSIGNMENT_3_1_TO_5_1\ASSIGNMENT_3_1\DEBUG\PLAYER.OBJ
D:\OSIPOV\PROGRAMMINGPATTERNS\GAP-255-01-PROGRAMMING-DESIGN-PATTERNS\HOMEWORK\ASSIGNMENT_5_1\ASSIGNMENT_3_1_TO_5_1\ASSIGNMENT_3_1\DEBUG\TILE.OBJ
D:\OSIPOV\PROGRAMMINGPATTERNS\GAP-255-01-PROGRAMMING-DESIGN-PATTERNS\HOMEWORK\ASSIGNMENT_5_1\ASSIGNMENT_3_1_TO_5_1\ASSIGNMENT_3_1\DEBUG\TILE_EFFECT_ADD_GOLD.OBJ
D:\OSIPOV\PROGRAMMINGPATTERNS\GAP-255-01-PROGRAMMING-DESIGN-PATTERNS\HOMEWORK\ASSIGNMENT_5_1\ASSIGNMENT_3_1_TO_5_1\ASSIGNMENT_3_1\DEBUG\TILE_EFFECT_DAMAGE_PLAYER.OBJ
D:\OSIPOV\PROGRAMMINGPATTERNS\GAP-255-01-PROGRAMMING-DESIGN-PATTERNS\HOMEWORK\ASSIGNMENT_5_1\ASSIGNMENT_3_1_TO_5_1\ASSIGNMENT_3_1\DEBUG\TREASURETILE.OBJ
D:\OSIPOV\PROGRAMMINGPATTERNS\GAP-255-01-PROGRAMMING-DESIGN-PATTERNS\HOMEWORK\ASSIGNMENT_5_1\ASSIGNMENT_3_1_TO_5_1\ASSIGNMENT_3_1\DEBUG\UTILITY.OBJ
D:\OSIPOV\PROGRAMMINGPATTERNS\GAP-255-01-PROGRAMMING-DESIGN-PATTERNS\HOMEWORK\ASSIGNMENT_5_1\ASSIGNMENT_3_1_TO_5_1\ASSIGNMENT_3_1\DEBUG\WORLD.OBJ
C:\WINDOWS\SYSTEM32\TZRES.DLL
C:\WINDOWS\GLOBALIZATION\SORTING\SORTDEFAULT.NLS
C:\PROGRAM FILES (X86)\MICROSOFT VISUAL STUDIO 12.0\VC\LIB\MSVCPRTD.LIB
C:\PROGRAM FILES (X86)\MICROSOFT VISUAL STUDIO 12.0\VC\LIB\MSVCRTD.LIB
C:\PROGRAM FILES (X86)\MICROSOFT VISUAL STUDIO 12.0\VC\LIB\OLDNAMES.LIB
