^E:\REZ\GAP 255\MODULE 8\ASSIGNMENT 8.1\ASSIGNMENT 8.1\DEBUG\ASSIGNMENT 8.1.OBJ
E:\REZ\GAP 255\MODULE 8\ASSIGNMENT 8.1\DEBUG\ASSIGNMENT 8.1.ILK
E:\REZ\GAP 255\MODULE 8\ASSIGNMENT 8.1\DEBUG\ASSIGNMENT 8.1.EXE
E:\REZ\GAP 255\MODULE 8\ASSIGNMENT 8.1\DEBUG\ASSIGNMENT 8.1.PDB
^D:\OSIPOV\GAP-255-01-PROGRAMMING-DESIGN-PATTERNS\HOMEWORK\ASSIGNMENT 8.1\ASSIGNMENT 8.1\ASSIGNMENT 8.1\DEBUG\ASSIGNMENT 8.1.OBJ
D:\OSIPOV\GAP-255-01-PROGRAMMING-DESIGN-PATTERNS\HOMEWORK\ASSIGNMENT 8.1\ASSIGNMENT 8.1\DEBUG\ASSIGNMENT 8.1.ILK
D:\OSIPOV\GAP-255-01-PROGRAMMING-DESIGN-PATTERNS\HOMEWORK\ASSIGNMENT 8.1\ASSIGNMENT 8.1\DEBUG\ASSIGNMENT 8.1.EXE
D:\OSIPOV\GAP-255-01-PROGRAMMING-DESIGN-PATTERNS\HOMEWORK\ASSIGNMENT 8.1\ASSIGNMENT 8.1\DEBUG\ASSIGNMENT 8.1.PDB
