^D:\OSIPOV\GAP-255-01-PROGRAMMING-DESIGN-PATTERNS\HOMEWORK\ASSIGNMENT_9_1\EVENTSYSTEM\EVENTSYSTEM\DEBUG\EVENTHANDLER.OBJ|D:\OSIPOV\GAP-255-01-PROGRAMMING-DESIGN-PATTERNS\HOMEWORK\ASSIGNMENT_9_1\EVENTSYSTEM\EVENTSYSTEM\DEBUG\MAIN.OBJ|D:\OSIPOV\GAP-255-01-PROGRAMMING-DESIGN-PATTERNS\HOMEWORK\ASSIGNMENT_9_1\EVENTSYSTEM\EVENTSYSTEM\DEBUG\OBJECT.OBJ|D:\OSIPOV\GAP-255-01-PROGRAMMING-DESIGN-PATTERNS\HOMEWORK\ASSIGNMENT_9_1\EVENTSYSTEM\EVENTSYSTEM\DEBUG\OBJECTBUILDER.OBJ
D:\OSIPOV\GAP-255-01-PROGRAMMING-DESIGN-PATTERNS\HOMEWORK\ASSIGNMENT_9_1\EVENTSYSTEM\DEBUG\EVENTSYSTEM.ILK
D:\OSIPOV\GAP-255-01-PROGRAMMING-DESIGN-PATTERNS\HOMEWORK\ASSIGNMENT_9_1\EVENTSYSTEM\DEBUG\EVENTSYSTEM.EXE
D:\OSIPOV\GAP-255-01-PROGRAMMING-DESIGN-PATTERNS\HOMEWORK\ASSIGNMENT_9_1\EVENTSYSTEM\DEBUG\EVENTSYSTEM.PDB
^D:\OSIPOV\BITBUCKET\GAP-255-01-PROGRAMMING-DESIGN-PATTERNS\HOMEWORK\ASSIGNMENT_9_1\EVENTSYSTEM\EVENTSYSTEM\DEBUG\EVENTHANDLER.OBJ|D:\OSIPOV\BITBUCKET\GAP-255-01-PROGRAMMING-DESIGN-PATTERNS\HOMEWORK\ASSIGNMENT_9_1\EVENTSYSTEM\EVENTSYSTEM\DEBUG\MAIN.OBJ|D:\OSIPOV\BITBUCKET\GAP-255-01-PROGRAMMING-DESIGN-PATTERNS\HOMEWORK\ASSIGNMENT_9_1\EVENTSYSTEM\EVENTSYSTEM\DEBUG\OBJECT.OBJ|D:\OSIPOV\BITBUCKET\GAP-255-01-PROGRAMMING-DESIGN-PATTERNS\HOMEWORK\ASSIGNMENT_9_1\EVENTSYSTEM\EVENTSYSTEM\DEBUG\OBJECTBUILDER.OBJ
D:\OSIPOV\BITBUCKET\GAP-255-01-PROGRAMMING-DESIGN-PATTERNS\HOMEWORK\ASSIGNMENT_9_1\EVENTSYSTEM\DEBUG\EVENTSYSTEM.ILK
D:\OSIPOV\BITBUCKET\GAP-255-01-PROGRAMMING-DESIGN-PATTERNS\HOMEWORK\ASSIGNMENT_9_1\EVENTSYSTEM\DEBUG\EVENTSYSTEM.EXE
D:\OSIPOV\BITBUCKET\GAP-255-01-PROGRAMMING-DESIGN-PATTERNS\HOMEWORK\ASSIGNMENT_9_1\EVENTSYSTEM\DEBUG\EVENTSYSTEM.PDB
